{
  "title": "<%= $PLASTER_PARAM_ProjectName %>",
  "description": "<%= $PLASTER_PARAM_ProjectDescription %>",
  "author": "<%= $PLASTER_PARAM_Author %>",
  "language": "en",
  "plugins": [
    <%= If ($PLASTER_PARAM_VideoPlugin) { '"html5-video",'} %>
    "expandable-chapters-small"
  ]
}