{
  "title": "Documentarian",
  "description": "Scaffolding for documentation of your PowerShell projects",
  "author": "Michael Lombardi (michael.t.lombardi@outlook.com)",
  "language": "en",
  "plugins": [
    "expandable-chapters-small",
    "html5-video"
  ]
}
